requests>=2.22.0
Django>=3.0.1
apscheduler>=3.6.3
satellitetle>=0.8.1
tqdm>=4.41.0
skyfield>=1.16
numpy >=1.16
czml3>=0.5.1
-e git+https://gitlab.com/librespacefoundation/satnogs/python-satnogs-api@e20a7d3c98526edb55f0dd20f58a4295f09a7bff#egg=satnogs_api_client